homework_3
…
# group kelp_data df by year, site, transect, species
# to isolate species at each transect in a single year
kelp_data_lam |> 
  group_by(YEAR, SITE, TRANSECT, SPECIES) |> 
# summarize data, showing the count for each species at each transect in each year
  summarize(count = n()) |> 
# remove NA species names if present, and filter to only show any rows
# with more than 1 of the same species observation.
  filter(!is.na(SPECIES), count != 1) |> 
  ungroup()

`summarise()` has grouped output by 'YEAR', 'SITE', 'TRANSECT'. You can
override using the `.groups` argument.

# A tibble: 55 × 5
    YEAR SITE            TRANSECT SPECIES              count
   <dbl> <chr>           <chr>    <chr>                <int>
 1  2014 Baker North     3        Saccharina latissima     2
 2  2014 Baker South     1        Saccharina latissima     2
 3  2014 Baker South     2        Saccharina latissima     2
 4  2014 Baker South     3        Saccharina latissima     2
 5  2014 Baker South     4        Saccharina latissima     2
 6  2014 Calf Island     1        Saccharina latissima     2
 7  2014 Calf Island     2        Saccharina latissima     2
 8  2014 Calf Island     4        Saccharina latissima     2
 9  2014 Little Brewster 2        Saccharina latissima     2
10  2014 Little Brewster 3        Saccharina latissima     2
# ℹ 45 more rows
…
