Midterm Exam
…
The primary potential issue in the assumptions check is that there are high reported VIFs, suggesting possible collinearity. However, this will happen when you include interaction in your model, so I tested just collinearity for the model without interaction. We still see high VIFs for temperature and bird #, but this is caveated with “Model matrix is rank deficient. VIFs may not be sensible.” I believe this comes from the fact that there are only 2 temperature levels and bird number is repeated labelling, so these are essentially structured combinations leading to misevaluation of collinearity.

Overall, I’d say the assumptions look good and no model adjustments are needed.

2e. Answer the Question

A central question of this paper is - does temperature affect the development of tarsus length. With your fit model in hand, answer the question, however you deem fit. Make sure that, alongside any numerical answers you produce, there is at least one stunning figure for a publishable paper!

# Evaluate the model
tidy(tarsus_lm)

# A tibble: 81 × 5
   term           estimate std.error statistic  p.value
   <chr>             <dbl>     <dbl>     <dbl>    <dbl>
 1 (Intercept)      17.9       0.964    18.6   6.48e-63
 2 `Age (days)`7     0.452     0.568     0.795 4.27e- 1
 3 `Age (days)`9     2.70      0.568     4.75  2.44e- 6
 4 `Age (days)`11    4.62      0.568     8.13  1.97e-15
 5 `Age (days)`13    5.40      0.588     9.19  4.66e-19
 6 `Age (days)`15    6.58      0.588    11.2   8.09e-27
 7 `Age (days)`17    8.38      0.588    14.3   1.33e-40
 8 `Age (days)`19    9.62      0.588    16.4   4.09e-51
 9 `Age (days)`21   11.1       0.588    18.9   1.52e-64
10 `Age (days)`23   12.0       0.588    20.5   3.76e-73
# ℹ 71 more rows
…
